{
    "abraham": "https://hjg.com.ar/vocbib/art/abraham.html",
    "acci\u00f3n\u00a0de\u00a0gracias": "https://hjg.com.ar/vocbib/art/accion_de_gracias.html",
    "aceite": "https://hjg.com.ar/vocbib/art/aceite.html",
    "ad\u00e1n": "https://hjg.com.ar/vocbib/art/adan.html",
    "adoraci\u00f3n": "https://hjg.com.ar/vocbib/art/adoracion.html",
    "agua": "https://hjg.com.ar/vocbib/art/agua.html",
    "alabanza": "https://hjg.com.ar/vocbib/art/alabanza.html",
    "alianza": "https://hjg.com.ar/vocbib/art/alianza.html",
    "alimento": "https://hjg.com.ar/vocbib/art/alimento.html",
    "alma": "https://hjg.com.ar/vocbib/art/alma.html",
    "altar": "https://hjg.com.ar/vocbib/art/altar.html",
    "am\u00e9n": "https://hjg.com.ar/vocbib/art/amen.html",
    "amigo": "https://hjg.com.ar/vocbib/art/amigo.html",
    "amor": "https://hjg.com.ar/vocbib/art/amor.html",
    "\u00e1ngeles": "https://hjg.com.ar/vocbib/art/angeles.html",
    "animales": "https://hjg.com.ar/vocbib/art/animales.html",
    "anticristo": "https://hjg.com.ar/vocbib/art/anticristo.html",
    "ap\u00f3stoles": "https://hjg.com.ar/vocbib/art/apostoles.html",
    "\u00e1rbol": "https://hjg.com.ar/vocbib/art/arbol.html",
    "arca": "https://hjg.com.ar/vocbib/art/arca.html",
    "ascensi\u00f3n": "https://hjg.com.ar/vocbib/art/ascension.html",
    "astros": "https://hjg.com.ar/vocbib/art/astros.html",
    "autoridad": "https://hjg.com.ar/vocbib/art/autoridad.html",
    "ayuno": "https://hjg.com.ar/vocbib/art/ayuno.html",
    "babel\u00a0-\u00a0babilonia": "https://hjg.com.ar/vocbib/art/babel_babilonia.html",
    "bautismo": "https://hjg.com.ar/vocbib/art/bautismo.html",
    "bendici\u00f3n": "https://hjg.com.ar/vocbib/art/bendicion.html",
    "bestias": "https://hjg.com.ar/vocbib/art/bestia_bestias.html",
    "bien\u00a0-\u00a0mal": "https://hjg.com.ar/vocbib/art/bien_y_mal.html",
    "bienaventuranza": "https://hjg.com.ar/vocbib/art/bienaventuranza.html",
    "blanco": "https://hjg.com.ar/vocbib/art/blanco.html",
    "brazo": "https://hjg.com.ar/vocbib/art/brazo.html",
    "buscar": "https://hjg.com.ar/vocbib/art/buscar.html",
    "calamidad": "https://hjg.com.ar/vocbib/art/calamidad.html",
    "camino": "https://hjg.com.ar/vocbib/art/camino.html",
    "carisma": "https://hjg.com.ar/vocbib/art/carisma.html",
    "carne": "https://hjg.com.ar/vocbib/art/carne.html",
    "casa": "https://hjg.com.ar/vocbib/art/casa.html",
    "castigos": "https://hjg.com.ar/vocbib/art/castigos.html",
    "cautividad": "https://hjg.com.ar/vocbib/art/cautividad.html",
    "celo": "https://hjg.com.ar/vocbib/art/celo.html",
    "cielo": "https://hjg.com.ar/vocbib/art/cielo.html",
    "circuncisi\u00f3n": "https://hjg.com.ar/vocbib/art/circuncision.html",
    "comida": "https://hjg.com.ar/vocbib/art/comida.html",
    "comuni\u00f3n": "https://hjg.com.ar/vocbib/art/comunion.html",
    "confesi\u00f3n": "https://hjg.com.ar/vocbib/art/confesion.html",
    "confianza": "https://hjg.com.ar/vocbib/art/confianza.html",
    "conocer": "https://hjg.com.ar/vocbib/art/conocer.html",
    "consolaci\u00f3n": "https://hjg.com.ar/vocbib/art/consolacion.html",
    "copa": "https://hjg.com.ar/vocbib/art/copa.html",
    "coraz\u00f3n": "https://hjg.com.ar/vocbib/art/corazon.html",
    "cordero\u00a0de\u00a0dios": "https://hjg.com.ar/vocbib/art/cordero_de_dios.html",
    "creaci\u00f3n": "https://hjg.com.ar/vocbib/art/creacion.html",
    "crecimiento": "https://hjg.com.ar/vocbib/art/crecimiento.html",
    "cruz": "https://hjg.com.ar/vocbib/art/cruz.html",
    "cuerpo": "https://hjg.com.ar/vocbib/art/cuerpo.html",
    "cuerpo\u00a0de\u00a0cristo": "https://hjg.com.ar/vocbib/art/cuerpo_de_cristo.html",
    "cuidados": "https://hjg.com.ar/vocbib/art/cuidados.html",
    "culto": "https://hjg.com.ar/vocbib/art/culto.html",
    "cumplir": "https://hjg.com.ar/vocbib/art/cumplir.html",
    "david": "https://hjg.com.ar/vocbib/art/david.html",
    "demonios": "https://hjg.com.ar/vocbib/art/demonios.html",
    "deseo": "https://hjg.com.ar/vocbib/art/deseo.html",
    "desierto": "https://hjg.com.ar/vocbib/art/desierto.html",
    "designio\u00a0de\u00a0dios": "https://hjg.com.ar/vocbib/art/designio_de_dios.html",
    "d\u00eda\u00a0del\u00a0se\u00f1or": "https://hjg.com.ar/vocbib/art/dia_domini.html",
    "diestra": "https://hjg.com.ar/vocbib/art/diestra.html",
    "diluvio": "https://hjg.com.ar/vocbib/art/diluvio.html",
    "dios": "https://hjg.com.ar/vocbib/art/dios.html",
    "disc\u00edpulo": "https://hjg.com.ar/vocbib/art/discipulo.html",
    "dispersi\u00f3n": "https://hjg.com.ar/vocbib/art/dispersion.html",
    "don": "https://hjg.com.ar/vocbib/art/don.html",
    "edificar": "https://hjg.com.ar/vocbib/art/edificar.html",
    "educaci\u00f3n": "https://hjg.com.ar/vocbib/art/educacion.html",
    "egipto": "https://hjg.com.ar/vocbib/art/egipto.html",
    "ejemplo": "https://hjg.com.ar/vocbib/art/ejemplo.html",
    "elecci\u00f3n": "https://hjg.com.ar/vocbib/art/eleccion.html",
    "el\u00edas": "https://hjg.com.ar/vocbib/art/elias.html",
    "embriaguez": "https://hjg.com.ar/vocbib/art/embriaguez.html",
    "endurecimiento": "https://hjg.com.ar/vocbib/art/endurecimiento.html",
    "enemigo": "https://hjg.com.ar/vocbib/art/enemigo.html",
    "enfermedad\u00a0-\u00a0curaci\u00f3n": "https://hjg.com.ar/vocbib/art/enfermedad_curacion.html",
    "ense\u00f1ar": "https://hjg.com.ar/vocbib/art/ensenar.html",
    "error": "https://hjg.com.ar/vocbib/art/error.html",
    "esc\u00e1ndalo": "https://hjg.com.ar/vocbib/art/escandalo.html",
    "esclavo": "https://hjg.com.ar/vocbib/art/esclavo.html",
    "escritura": "https://hjg.com.ar/vocbib/art/escritura.html",
    "escuchar": "https://hjg.com.ar/vocbib/art/escuchar.html",
    "esperanza": "https://hjg.com.ar/vocbib/art/esperanza.html",
    "esp\u00edritu": "https://hjg.com.ar/vocbib/art/espiritu.html",
    "esp\u00edritu\u00a0de\u00a0dios": "https://hjg.com.ar/vocbib/art/espiritu_de_dios.html",
    "esposo": "https://hjg.com.ar/vocbib/art/esposo.html",
    "esterilidad": "https://hjg.com.ar/vocbib/art/esterilidad.html",
    "eucarist\u00eda": "https://hjg.com.ar/vocbib/art/eucaristia.html",
    "evangelio": "https://hjg.com.ar/vocbib/art/evangelio.html",
    "exhortar": "https://hjg.com.ar/vocbib/art/exhortar.html",
    "exilio": "https://hjg.com.ar/vocbib/art/exilio.html",
    "\u00e9xodo": "https://hjg.com.ar/vocbib/art/exodo.html",
    "expiaci\u00f3n": "https://hjg.com.ar/vocbib/art/expiacion.html",
    "extranjero": "https://hjg.com.ar/vocbib/art/extranjero.html",
    "fariseos": "https://hjg.com.ar/vocbib/art/fariseos.html",
    "fe": "https://hjg.com.ar/vocbib/art/fe.html",
    "fecundidad": "https://hjg.com.ar/vocbib/art/fecundidad.html",
    "fidelidad": "https://hjg.com.ar/vocbib/art/fidelidad.html",
    "fiestas": "https://hjg.com.ar/vocbib/art/fiestas.html",
    "figura": "https://hjg.com.ar/vocbib/art/figura.html",
    "fruto": "https://hjg.com.ar/vocbib/art/fruto.html",
    "fuego": "https://hjg.com.ar/vocbib/art/fuego.html",
    "fuerza": "https://hjg.com.ar/vocbib/art/fuerza.html",
    "generaci\u00f3n": "https://hjg.com.ar/vocbib/art/generacion.html",
    "gloria": "https://hjg.com.ar/vocbib/art/gloria.html",
    "gozo": "https://hjg.com.ar/vocbib/art/gozo.html",
    "gracia": "https://hjg.com.ar/vocbib/art/gracia.html",
    "guerra": "https://hjg.com.ar/vocbib/art/guerra.html",
    "gustar": "https://hjg.com.ar/vocbib/art/gustar.html",
    "hambre\u00a0y\u00a0sed": "https://hjg.com.ar/vocbib/art/hambre_y_sed.html",
    "hebreo": "https://hjg.com.ar/vocbib/art/hebreo.html",
    "herencia": "https://hjg.com.ar/vocbib/art/herencia.html",
    "hermano": "https://hjg.com.ar/vocbib/art/hermano.html",
    "hijo": "https://hjg.com.ar/vocbib/art/hijo.html",
    "hijo\u00a0del\u00a0hombre": "https://hjg.com.ar/vocbib/art/hijo_del_hombre.html",
    "hip\u00f3crita": "https://hjg.com.ar/vocbib/art/hipocrita.html",
    "hombre": "https://hjg.com.ar/vocbib/art/hombre.html",
    "hora": "https://hjg.com.ar/vocbib/art/hora.html",
    "hospitalidad": "https://hjg.com.ar/vocbib/art/hospitalidad.html",
    "humildad": "https://hjg.com.ar/vocbib/art/humildad.html",
    "\u00eddolos": "https://hjg.com.ar/vocbib/art/idolos.html",
    "iglesia": "https://hjg.com.ar/vocbib/art/iglesia.html",
    "imagen": "https://hjg.com.ar/vocbib/art/imagen.html",
    "imp\u00edo": "https://hjg.com.ar/vocbib/art/impio.html",
    "imposici\u00f3n\u00a0de\u00a0manos": "https://hjg.com.ar/vocbib/art/imposicion_de_manos.html",
    "incredulidad": "https://hjg.com.ar/vocbib/art/incredulidad.html",
    "infierno": "https://hjg.com.ar/vocbib/art/infierno.html",
    "ira": "https://hjg.com.ar/vocbib/art/ira.html",
    "israel": "https://hjg.com.ar/vocbib/art/israel.html",
    "jerusal\u00e9n": "https://hjg.com.ar/vocbib/art/jerusalen.html",
    "jes\u00fas": "https://hjg.com.ar/vocbib/art/jesus.html",
    "juan\u00a0bautista": "https://hjg.com.ar/vocbib/art/juan_bautista.html",
    "jud\u00edo": "https://hjg.com.ar/vocbib/art/judio.html",
    "juicio": "https://hjg.com.ar/vocbib/art/juicio.html",
    "justicia": "https://hjg.com.ar/vocbib/art/justicia.html",
    "justificaci\u00f3n": "https://hjg.com.ar/vocbib/art/justificacion.html",
    "labios": "https://hjg.com.ar/vocbib/art/labios.html",
    "l\u00e1mpara": "https://hjg.com.ar/vocbib/art/lampara.html",
    "leche": "https://hjg.com.ar/vocbib/art/leche.html",
    "lengua": "https://hjg.com.ar/vocbib/art/lengua.html",
    "lepra": "https://hjg.com.ar/vocbib/art/lepra.html",
    "ley": "https://hjg.com.ar/vocbib/art/ley.html",
    "liberaci\u00f3n\u00a0-\u00a0libertad": "https://hjg.com.ar/vocbib/art/liberacion_libertad.html",
    "libro": "https://hjg.com.ar/vocbib/art/libro.html",
    "limosna": "https://hjg.com.ar/vocbib/art/limosna.html",
    "locura": "https://hjg.com.ar/vocbib/art/locura.html",
    "lomos\u00a0y\u00a0ri\u00f1ones": "https://hjg.com.ar/vocbib/art/lomos.html",
    "luz": "https://hjg.com.ar/vocbib/art/luz.html",
    "madre": "https://hjg.com.ar/vocbib/art/madre.html",
    "maldici\u00f3n": "https://hjg.com.ar/vocbib/art/maldicion.html",
    "man\u00e1": "https://hjg.com.ar/vocbib/art/mana.html",
    "mansedumbre": "https://hjg.com.ar/vocbib/art/mansedumbre.html",
    "mar": "https://hjg.com.ar/vocbib/art/mar.html",
    "mar\u00eda": "https://hjg.com.ar/vocbib/art/maria.html",
    "m\u00e1rtir": "https://hjg.com.ar/vocbib/art/martir.html",
    "matrimonio": "https://hjg.com.ar/vocbib/art/matrimonio.html",
    "mediador": "https://hjg.com.ar/vocbib/art/mediador.html",
    "memoria": "https://hjg.com.ar/vocbib/art/memoria.html",
    "mentira": "https://hjg.com.ar/vocbib/art/mentira.html",
    "mes\u00edas": "https://hjg.com.ar/vocbib/art/mesias.html",
    "milagro": "https://hjg.com.ar/vocbib/art/milagro.html",
    "ministerio": "https://hjg.com.ar/vocbib/art/ministerio.html",
    "misericordia": "https://hjg.com.ar/vocbib/art/misericordia.html",
    "misi\u00f3n": "https://hjg.com.ar/vocbib/art/mision.html",
    "misterio": "https://hjg.com.ar/vocbib/art/misterio.html",
    "mois\u00e9s": "https://hjg.com.ar/vocbib/art/moises.html",
    "monta\u00f1a": "https://hjg.com.ar/vocbib/art/montana.html",
    "muerte": "https://hjg.com.ar/vocbib/art/muerte.html",
    "mujer": "https://hjg.com.ar/vocbib/art/mujer.html",
    "mundo": "https://hjg.com.ar/vocbib/art/mundo.html",
    "nacimiento\u00a0(nuevo)": "https://hjg.com.ar/vocbib/art/nacimiento_nuevo.html",
    "naciones": "https://hjg.com.ar/vocbib/art/naciones.html",
    "ni\u00f1o": "https://hjg.com.ar/vocbib/art/nino.html",
    "noche": "https://hjg.com.ar/vocbib/art/noche.html",
    "nombre": "https://hjg.com.ar/vocbib/art/nombre.html",
    "nube": "https://hjg.com.ar/vocbib/art/nube.html",
    "nuevo": "https://hjg.com.ar/vocbib/art/nuevo.html",
    "n\u00fameros": "https://hjg.com.ar/vocbib/art/numeros.html",
    "obediencia": "https://hjg.com.ar/vocbib/art/obediencia.html",
    "obras": "https://hjg.com.ar/vocbib/art/obras.html",
    "odio": "https://hjg.com.ar/vocbib/art/odio.html",
    "oraci\u00f3n": "https://hjg.com.ar/vocbib/art/oracion.html",
    "orgullo": "https://hjg.com.ar/vocbib/art/orgullo.html",
    "paciencia": "https://hjg.com.ar/vocbib/art/paciencia.html",
    "padres\u00a0y\u00a0padre": "https://hjg.com.ar/vocbib/art/padres_y_padre.html",
    "palabra\u00a0de\u00a0dios": "https://hjg.com.ar/vocbib/art/palabra_de_dios.html",
    "palabra\u00a0humana": "https://hjg.com.ar/vocbib/art/palabra_humana.html",
    "pan": "https://hjg.com.ar/vocbib/art/pan.html",
    "par\u00e1bola": "https://hjg.com.ar/vocbib/art/parabola.html",
    "par\u00e1clito": "https://hjg.com.ar/vocbib/art/paraclito.html",
    "para\u00edso": "https://hjg.com.ar/vocbib/art/paraiso.html",
    "pascua": "https://hjg.com.ar/vocbib/art/pascua.html",
    "pastor\u00a0-\u00a0reba\u00f1o": "https://hjg.com.ar/vocbib/art/pastor_y_rebano.html",
    "patria": "https://hjg.com.ar/vocbib/art/patria.html",
    "paz": "https://hjg.com.ar/vocbib/art/paz.html",
    "pecado": "https://hjg.com.ar/vocbib/art/pecado.html",
    "pedro": "https://hjg.com.ar/vocbib/art/pedro.html",
    "penitencia\u00a0-\u00a0conversi\u00f3n": "https://hjg.com.ar/vocbib/art/penitencia_conversion.html",
    "pentecost\u00e9s": "https://hjg.com.ar/vocbib/art/pentecostes.html",
    "perd\u00f3n": "https://hjg.com.ar/vocbib/art/perdon.html",
    "perfecci\u00f3n": "https://hjg.com.ar/vocbib/art/perfeccion.html",
    "permanecer": "https://hjg.com.ar/vocbib/art/permanecer.html",
    "persecuci\u00f3n": "https://hjg.com.ar/vocbib/art/persecucion.html",
    "piedad": "https://hjg.com.ar/vocbib/art/piedad.html",
    "piedra": "https://hjg.com.ar/vocbib/art/piedra.html",
    "plenitud": "https://hjg.com.ar/vocbib/art/plenitud.html",
    "pobres": "https://hjg.com.ar/vocbib/art/pobres.html",
    "poder": "https://hjg.com.ar/vocbib/art/poder.html",
    "predicar": "https://hjg.com.ar/vocbib/art/predicar.html",
    "presencia\u00a0de\u00a0dios": "https://hjg.com.ar/vocbib/art/presencia_de_dios.html",
    "primicias": "https://hjg.com.ar/vocbib/art/primicias.html",
    "proceso": "https://hjg.com.ar/vocbib/art/proceso.html",
    "profeta": "https://hjg.com.ar/vocbib/art/profeta.html",
    "pr\u00f3jimo": "https://hjg.com.ar/vocbib/art/projimo.html",
    "promesas": "https://hjg.com.ar/vocbib/art/promesas.html",
    "prueba\u00a0-\u00a0tentaci\u00f3n": "https://hjg.com.ar/vocbib/art/prueba_tentacion.html",
    "pueblo": "https://hjg.com.ar/vocbib/art/pueblo.html",
    "puerta": "https://hjg.com.ar/vocbib/art/puerta.html",
    "puro": "https://hjg.com.ar/vocbib/art/puro.html",
    "reconciliaci\u00f3n": "https://hjg.com.ar/vocbib/art/reconciliacion.html",
    "redenci\u00f3n": "https://hjg.com.ar/vocbib/art/redencion.html",
    "reino": "https://hjg.com.ar/vocbib/art/reino.html",
    "reposo": "https://hjg.com.ar/vocbib/art/reposo.html",
    "resto": "https://hjg.com.ar/vocbib/art/resto.html",
    "resurrecci\u00f3n": "https://hjg.com.ar/vocbib/art/resurreccion.html",
    "retribuci\u00f3n": "https://hjg.com.ar/vocbib/art/retribucion.html",
    "revelaci\u00f3n": "https://hjg.com.ar/vocbib/art/revelacion.html",
    "rey": "https://hjg.com.ar/vocbib/art/rey.html",
    "riquezas": "https://hjg.com.ar/vocbib/art/riquezas.html",
    "risa": "https://hjg.com.ar/vocbib/art/risa.html",
    "roca": "https://hjg.com.ar/vocbib/art/roca.html",
    "rodilla": "https://hjg.com.ar/vocbib/art/rodilla.html",
    "rostro": "https://hjg.com.ar/vocbib/art/rostro.html",
    "s\u00e1bado": "https://hjg.com.ar/vocbib/art/sabado.html",
    "sabidur\u00eda": "https://hjg.com.ar/vocbib/art/sabiduria.html",
    "sacerdocio": "https://hjg.com.ar/vocbib/art/sacerdocio.html",
    "sacrificio": "https://hjg.com.ar/vocbib/art/sacrificio.html",
    "salvaci\u00f3n": "https://hjg.com.ar/vocbib/art/salvacion.html",
    "sangre": "https://hjg.com.ar/vocbib/art/sangre.html",
    "santo": "https://hjg.com.ar/vocbib/art/santo.html",
    "sat\u00e1n": "https://hjg.com.ar/vocbib/art/satan.html",
    "seguir": "https://hjg.com.ar/vocbib/art/seguir.html",
    "sello": "https://hjg.com.ar/vocbib/art/sello.html",
    "semana": "https://hjg.com.ar/vocbib/art/semana.html",
    "sembrar": "https://hjg.com.ar/vocbib/art/sembrar.html",
    "sencillo": "https://hjg.com.ar/vocbib/art/sencillo.html",
    "se\u00f1or": "https://hjg.com.ar/vocbib/art/senor.html",
    "servir": "https://hjg.com.ar/vocbib/art/servir.html",
    "siega": "https://hjg.com.ar/vocbib/art/siega.html",
    "siervo\u00a0de\u00a0yahveh": "https://hjg.com.ar/vocbib/art/siervo_de_yahveh.html",
    "silencio": "https://hjg.com.ar/vocbib/art/silencio.html",
    "soberbia": "https://hjg.com.ar/vocbib/art/soberbia.html",
    "soledad": "https://hjg.com.ar/vocbib/art/soledad.html",
    "sombra": "https://hjg.com.ar/vocbib/art/sombra.html",
    "sue\u00f1o": "https://hjg.com.ar/vocbib/art/sueno.html",
    "sufrimiento": "https://hjg.com.ar/vocbib/art/sufrimiento.html",
    "temor": "https://hjg.com.ar/vocbib/art/temor.html",
    "templo": "https://hjg.com.ar/vocbib/art/templo.html",
    "testimonio": "https://hjg.com.ar/vocbib/art/testimonio.html",
    "tiempo": "https://hjg.com.ar/vocbib/art/tiempo.html",
    "tierra": "https://hjg.com.ar/vocbib/art/tierra.html",
    "tormenta": "https://hjg.com.ar/vocbib/art/tormenta.html",
    "trabajo": "https://hjg.com.ar/vocbib/art/trabajo.html",
    "tradici\u00f3n": "https://hjg.com.ar/vocbib/art/tradicion.html",
    "transfiguraci\u00f3n": "https://hjg.com.ar/vocbib/art/transfiguracion.html",
    "tristeza": "https://hjg.com.ar/vocbib/art/tristeza.html",
    "unci\u00f3n": "https://hjg.com.ar/vocbib/art/uncion.html",
    "unidad": "https://hjg.com.ar/vocbib/art/unidad.html",
    "velar": "https://hjg.com.ar/vocbib/art/velar.html",
    "vendimia": "https://hjg.com.ar/vocbib/art/vendimia.html",
    "venganza": "https://hjg.com.ar/vocbib/art/venganza.html",
    "ver": "https://hjg.com.ar/vocbib/art/ver.html",
    "verdad": "https://hjg.com.ar/vocbib/art/verdad.html",
    "verg\u00fcenza": "https://hjg.com.ar/vocbib/art/verguenza.html",
    "vestido": "https://hjg.com.ar/vocbib/art/vestido.html",
    "victoria": "https://hjg.com.ar/vocbib/art/victoria.html",
    "vida": "https://hjg.com.ar/vocbib/art/vida.html",
    "vi\u00f1a": "https://hjg.com.ar/vocbib/art/vigna.html",
    "vino": "https://hjg.com.ar/vocbib/art/vino.html",
    "virginidad": "https://hjg.com.ar/vocbib/art/virginidad.html",
    "visita": "https://hjg.com.ar/vocbib/art/visita.html",
    "vocaci\u00f3n": "https://hjg.com.ar/vocbib/art/vocacion.html",
    "voluntad\u00a0de\u00a0dios": "https://hjg.com.ar/vocbib/art/voluntad_de_dios.html"
}